15:11:20.334 Load:  50%
15:11:20.337 100%:  50mS
15:11:20.340 Sleep: 50mS
15:11:20.343 TMyLoadThread.Created (3)
15:11:20.345 Affinity 3 Mask 8
15:11:30.137 Load:  78%
15:11:30.139 100%:  78mS
15:11:30.142 Sleep: 22mS
15:11:37.446 Factor 2,01096966930883
15:11:37.449 TMyLoadThread.Destroyed (3)
